<?xml version="1.0" encoding="UTF-8" standalone="no"?>
<!-- Created with Inkscape (http://www.inkscape.org/) -->

<svg
   xmlns:dc="http://purl.org/dc/elements/1.1/"
   xmlns:cc="http://creativecommons.org/ns#"
   xmlns:rdf="http://www.w3.org/1999/02/22-rdf-syntax-ns#"
   xmlns:svg="http://www.w3.org/2000/svg"
   xmlns="http://www.w3.org/2000/svg"
   xmlns:sodipodi="http://sodipodi.sourceforge.net/DTD/sodipodi-0.dtd"
   xmlns:inkscape="http://www.inkscape.org/namespaces/inkscape"
   width="210mm"
   height="297mm"
   viewBox="0 0 744.09448819 1052.3622047"
   id="svg5208"
   version="1.1"
   inkscape:version="0.92.3 (2405546, 2018-03-11)"
   sodipodi:docname="cylinder.svg">
  <defs
     id="defs5210">
    <marker
       markerWidth="199.53238"
       markerHeight="199.53236"
       refX="99.76619"
       refY="99.766182"
       orient="auto"
       id="marker5790">
      <ellipse
         ry="99.266182"
         rx="99.26619"
         cy="99.766182"
         cx="99.76619"
         id="path5788"
         style="opacity:1;fill:#ffffff;fill-opacity:1;stroke:#cc0000;stroke-width:1;stroke-miterlimit:4;stroke-dasharray:none;stroke-dashoffset:0;stroke-opacity:1" />
    </marker>
  </defs>
  <sodipodi:namedview
     id="base"
     pagecolor="#ffffff"
     bordercolor="#666666"
     borderopacity="1.0"
     inkscape:pageopacity="0.0"
     inkscape:pageshadow="2"
     inkscape:zoom="0.35355339"
     inkscape:cx="186.36534"
     inkscape:cy="793.49329"
     inkscape:document-units="px"
     inkscape:current-layer="layer1"
     showgrid="false"
     inkscape:window-width="1073"
     inkscape:window-height="1303"
     inkscape:window-x="294"
     inkscape:window-y="310"
     inkscape:window-maximized="0"
     showguides="true"
     inkscape:guide-bbox="true">
    <sodipodi:guide
       position="-178.32248,700.00001"
       orientation="0,1"
       id="guide5775"
       inkscape:label=""
       inkscape:color="rgb(0,0,255)"
       inkscape:locked="false" />
    <sodipodi:guide
       position="350,773.91959"
       orientation="1,0"
       id="guide5784"
       inkscape:label=""
       inkscape:color="rgb(0,0,255)"
       inkscape:locked="false" />
    <sodipodi:guide
       position="99.860591,960.00002"
       orientation="0,1"
       id="guide5801"
       inkscape:label=""
       inkscape:color="rgb(0,0,255)"
       inkscape:locked="false" />
    <sodipodi:guide
       position="350,500.00001"
       orientation="0,1"
       id="guide5803"
       inkscape:label=""
       inkscape:color="rgb(0,0,255)"
       inkscape:locked="false" />
    <sodipodi:guide
       position="508.81349,600.00001"
       orientation="0,1"
       id="guide5805"
       inkscape:label=""
       inkscape:color="rgb(0,0,255)"
       inkscape:locked="false" />
    <sodipodi:guide
       position="1150,1029.5151"
       orientation="1,0"
       id="guide5808"
       inkscape:label=""
       inkscape:color="rgb(0,0,255)"
       inkscape:locked="false" />
    <sodipodi:guide
       position="-450,996.22829"
       orientation="1,0"
       id="guide5810"
       inkscape:label=""
       inkscape:color="rgb(0,0,255)"
       inkscape:locked="false" />
  </sodipodi:namedview>
  <metadata
     id="metadata5213">
    <rdf:RDF>
      <cc:Work
         rdf:about="">
        <dc:format>image/svg+xml</dc:format>
        <dc:type
           rdf:resource="http://purl.org/dc/dcmitype/StillImage" />
        <dc:title />
      </cc:Work>
    </rdf:RDF>
  </metadata>
  <g
     inkscape:label="NS_0"
     inkscape:groupmode="layer"
     id="layer1">
    <path
       style="opacity:1;fill:#ad7fa8;fill-opacity:1;stroke:#5c3566;stroke-width:5;stroke-miterlimit:4;stroke-dasharray:none;stroke-dashoffset:0;stroke-opacity:1"
       d="m 449.43103,352.36221 c 0,54.91424 -44.51679,99.43103 -99.43103,99.43103 -54.91424,0 -99.43103,-44.51679 -99.43103,-99.43103 0,-54.91424 44.51679,-99.43103 99.43103,-99.43103 54.91424,0 99.43103,44.51679 99.43103,99.43103 z"
       id="path5799"
       inkscape:connector-curvature="0"
       sodipodi:nodetypes="sssss"
       label="cylinder" />
  </g>
  <g
     inkscape:groupmode="layer"
     id="layer2"
     inkscape:label="Reference"
     style="display:inline">
    <path
       style="fill:none;fill-rule:evenodd;stroke:#000000;stroke-width:1px;stroke-linecap:butt;stroke-linejoin:miter;stroke-opacity:1"
       d="M -450,552.36221 1150,92.362205"
       id="path5812"
       inkscape:connector-curvature="0"
       CoordRef="-400,-230,400,0" />
  </g>
</svg>
